lab6
…
Question 1

mt_samples %>%
  count(medical_specialty, sort = TRUE)

# A tibble: 40 × 2
   medical_specialty                 n
   <chr>                         <int>
 1 Surgery                        1103
 2 Consult - History and Phy.      516
 3 Cardiovascular / Pulmonary      372
 4 Orthopedic                      355
 5 Radiology                       273
 6 General Medicine                259
 7 Gastroenterology                230
 8 Neurology                       223
 9 SOAP / Chart / Progress Notes   166
10 Obstetrics / Gynecology         160
# ℹ 30 more rows
…
mt_samples %>%
  unnest_tokens(trigram, transcription, token = "ngrams", n=3) %>%
  count(trigram ,sort = TRUE) %>%
  top_n(20,n) 

# A tibble: 22 × 2
   trigram                n
   <chr>              <int>
 1 the patient was     6104
 2 the patient is      3075
 3 as well as          2243
 4 there is no         1678
 5 the operating room  1532
 6 patient is a        1491
 7 prepped and draped  1490
 8 was used to         1480
 9 and draped in       1372
10 at this time        1333
# ℹ 12 more rows

Answer: word”the patient was” is the same as the results in the previous question, but some word like” the operate room” do not seem to be frequent in the previous question, that is the changes.

Question 5

mt_samples %>%
  unnest_tokens(bigram, transcription, token = "ngrams", n=2) %>%
  separate(bigram, c("word1","word2"), sep = " ") %>%
  filter(word1 == "patient" | word2 == "patient") %>%
  count(word1, word2, sort = TRUE)

# A tibble: 856 × 3
   word1   word2         n
   <chr>   <chr>     <int>
 1 the     patient   20307
 2 patient was        6293
 3 patient is         3332
 4 patient has        1417
 5 patient tolerated   994
 6 patient had         888
 7 patient will        616
 8 patient denies      552
 9 this    patient     470
10 patient and         377
# ℹ 846 more rows

Answer: use the “patient”, “the” is the most frequent word near it

Question 6

mt_samples %>%
  unnest_tokens(word, transcription) %>%
  anti_join(stop_words %>% filter(!word %in% c("right", "left")), by = "word") %>%
  filter(!grepl("^0-9+$", word)) %>%
  group_by(medical_specialty) %>%
  count(word, sort = TRUE) %>%
  top_n(5,n) %>%
  arrange(medical_specialty, desc(n))

# A tibble: 209 × 3
# Groups:   medical_specialty [40]
   medical_specialty    word          n
   <chr>                <chr>     <int>
 1 Allergy / Immunology history      38
 2 Allergy / Immunology noted        23
 3 Allergy / Immunology patient      22
 4 Allergy / Immunology allergies    21
 5 Allergy / Immunology nasal        13
 6 Allergy / Immunology past         13
 7 Autopsy              right       108
 8 Autopsy              left         83
 9 Autopsy              1            66
10 Autopsy              inch         59
# ℹ 199 more rows

Question 7

mt_samples %>%
  unnest_tokens(bigram, transcription, token = "ngrams", n=2) %>%
  separate(bigram, c("word1","word2"), sep = " ") %>%
  filter(word1 == "history" | word2 == "history") %>%
  count(word1, word2, sort = TRUE)

# A tibble: 935 × 3
   word1    word2       n
   <chr>    <chr>   <int>
 1 history  of       4537
 2 medical  history  1223
 3 family   history   941
 4 a        history   939
 5 social   history   865
 6 history  the       761
 7 surgical history   491
 8 no       history   473
 9 history  she       279
10 history  he        227
# ℹ 925 more rows
…
